{
	"info": {
		"_postman_id": "b7925874-e8ce-4388-bdfa-79178295b650",
		"name": "PropuestasFaasPSC",
		"schema": "https://schema.getpostman.com/json/collection/v2.1.0/collection.json"
	},
	"item": [
		{
			"name": "4. Get History",
			"request": {
				"method": "GET",
				"header": [],
				"url": {
					"raw": "http://172.18.0.3:8082/history",
					"protocol": "http",
					"host": [
						"172",
						"18",
						"0",
						"3"
					],
					"port": "8082",
					"path": [
						"history"
					]
				}
			},
			"response": []
		},
		{
			"name": "2. Launch function",
			"request": {
				"method": "GET",
				"header": [],
				"url": {
					"raw": "http://172.18.0.3:8082/lanzar?name_function=division",
					"protocol": "http",
					"host": [
						"172",
						"18",
						"0",
						"3"
					],
					"port": "8082",
					"path": [
						"lanzar"
					],
					"query": [
						{
							"key": "name_function",
							"value": "division"
						}
					]
				}
			},
			"response": []
		},
		{
			"name": "1. Registry function",
			"request": {
				"method": "POST",
				"header": [],
				"body": {
					"mode": "raw",
					"raw": "{\n    \"name_function\": \"division\",\n    \"code_function\": \"let x = 1024/2;console.log(x)\"\n}",
					"options": {
						"raw": {
							"language": "json"
						}
					}
				},
				"url": {
					"raw": "http://172.18.0.3:8082/registrar",
					"protocol": "http",
					"host": [
						"172",
						"18",
						"0",
						"3"
					],
					"port": "8082",
					"path": [
						"registrar"
					]
				}
			},
			"response": []
		},
		{
			"name": "3. Launch function and wait soultion",
			"request": {
				"method": "GET",
				"header": [],
				"url": {
					"raw": "http://172.18.0.3:8082/lanzar?name_function=division&wait=5000",
					"protocol": "http",
					"host": [
						"172",
						"18",
						"0",
						"3"
					],
					"port": "8082",
					"path": [
						"lanzar"
					],
					"query": [
						{
							"key": "name_function",
							"value": "division"
						},
						{
							"key": "wait",
							"value": "5000"
						}
					]
				}
			},
			"response": []
		},
		{
			"name": "3.b Get Soultion via jobid",
			"request": {
				"method": "GET",
				"header": [],
				"url": {
					"raw": "http://172.18.0.3:8082/solution?jobid=28ad2fc0-56b5-11eb-a9f3-917f9d9cda99",
					"protocol": "http",
					"host": [
						"172",
						"18",
						"0",
						"3"
					],
					"port": "8082",
					"path": [
						"solution"
					],
					"query": [
						{
							"key": "jobid",
							"value": "28ad2fc0-56b5-11eb-a9f3-917f9d9cda99"
						}
					]
				}
			},
			"response": []
		}
	]
}